MätplatsID;Mätplatsnamn;MätplatsBeskrivning;Sträcka;RiktplatsA;RiktplatsB;R1;R2;koordinater mätpunkter R1;koordinater mätpunkter R2;koordinater mätpunkter okänt;lat;lng
6265;C 0203 Roslagsvägen;Cykelbana längs Roslagsvägen vid kommungränsen Serienummer: Y2G13104545 Id: 100010665;Roslagsvägen;Stadsgränsen;Åminnevägen;Stadsgränsen => Åminnevägen;Åminnevägen => Stadsgränsen;MultiPoint(152727.814 6584412.403, 152728.339 6584411.343);MultiPoint(152730.103 6584412.975, 152731.086 6584411.801);;59.374712251635;18.04798300036765
6650;C 0318 Skanstullsbron Söderut;Cykelbana längs Götgatan Serienummer: Q15G1071296 Id: 100001835;Götgatan;Ringvägen;Skanstullsbron;Ringvägen => Skanstullsbron;Skanstullsbron => Ringvägen;MultiPoint(154386.984 6576814.405, 154390.961 6576815.635);;;59.30649426553896;18.077013699471543
6651;C 0318 Skanstullsbron Norrut;Cykelbana längs Götgatan Serienummer: Q15G1071295 Id: 100001834;Götgatan;Skanstullsbron;Ringvägen;Skanstullsbron => Ringvägen;Ringvägen => Skanstullsbron;MultiPoint(154414.106 6576809.746, 154410.559 6576808.716);;;59.30645215222062;18.07748973174596
6653;C 0319 Skansbron Östra;Cykelbana längs Skansbrogatan Serienummer: U15G1071293 Id: 100001832;Skansbron;Hammarby Slussväg;Skansbron;Hammarby Slussväg => Skansbron;Skansbron => Hammarby Slussväg;MultiPoint(154536.495 6576524.506, 154536.222 6576525.629);MultiPoint(154539.242 6576525.421, 154538.826 6576526.602);;59.30389036573772;18.079632286599924
6684;C 0437 Sofielundsplan Östra;Cykelbana längs Nynäsvägen Serienummer: Y2G13114763 Id: 100011580;Sofielundsplan Östra;Skolvägen;Glasmålarvägen;Skolvägen => Glasmålarvägen;Glasmålarvägen => Skolvägen;MultiPoint(155073.395 6574639.95, 155072.59 6574640.826);MultiPoint(155071.449 6574638.119, 155070.673 6574639.109);;59.286967354516186;18.0890126688914
6671;C 0111 Stadshusbron;Cykelbana längs Stadshusbron Serienummer: Y2H15108624 Id: 100027675;Stadshusbron;Stadshusbron;Hantverkargatan;Stadshusbron => Hantverkargatan;Hantverkargatan => Stadshusbron;MultiPoint(153174.362 6579215.298, 153173.103 6579215.412);MultiPoint(153172.76 6579212.894, 153173.676 6579212.551);;59.32805695558295;18.05576135675492
6632;C 0615 Bergslagsvägen Södra sidan;Cykelbana längs Bergslagsvägen Serienummer: Y2G14086166 Id: 100015302;Bergslagsvägen;Björnsonsgatan;Islandstorget;Björnsonsgatan => Islandstorget;Islandstorget => Björnsonsgatan;MultiPoint(143526.993 6581761.265, 143528.433 6581759.814);MultiPoint(143530.998 6581764.698, 143532.324 6581763.132);;59.35087335224424;17.886217811796804
6660;C 0521 Älvsjövägen;Cykelbana längs Älvsjövägen Serienummer: Y2G14086175 Id: 100015311;Älvsjövägen;Långbrodalsvägen;Sjättenovembervägen;Långbrodalsvägen => Sjättenovembervägen;Sjättenovembervägen => Långbrodalsvägen;MultiPoint(150133.667 6573824.1, 150135.389 6573823.317);MultiPoint(150135.155 6573827.877, 150137.22 6573826.979);;59.27967414052605;18.00234468434611
6662;C 0419 Huddingevägen Västra;Cykelbana längs Huddingevägen Serienummer: Y2G14086171 Id: 100015307;Huddingevägen;Huddinge;Stockholm;Huddinge => Stockholm;Stockholm => Huddinge;MultiPoint(150780.029 6571151.619, 150780.258 6571153.336);MultiPoint(150778.313 6571152.077, 150778.77 6571153.793);;59.25568335428077;18.0136730562185
6631;C 0602 Kistagången;Cykelbana Kistagången mellan Kista och Helenelund Serienummer: Y2G14086174 Id: 100015310;Kistagången;Helenelund;Kista;Helenelund => Kista;Kista => Helenelund;MultiPoint(147676.277 6588155.422, 147677.114 6588156.641);MultiPoint(147678.108 6588153.362, 147679.138 6588154.85);;59.40831391565934;17.959084603122122
6645;C 0109 Västerbron Östra;Cykelbana längs Västerbron Serienummer: Y2H16049616 Id: 100030828;Västerbron;Långholmsgatan;Västerbroplan;Långholmsgatan => Västerbroplan;Västerbroplan => Långholmsgatan;MultiPoint(151382.415 6579107.8, 151383.419 6579108.41, 151383.247 6579106.579);MultiPoint(151379.296 6579105.654, 151378.384 6579104.748, 151379.929 6579104.519);;59.3271017254734;18.02428304278686
6655;C 0509 Liljeholmsbron Östra;Cykelbana längs Liljeholmsbron Östra Serienummer: U15G1071290 Id: 100001829;Liljeholmsbron;Liljeholmen;Södermalm;Liljeholmen => Södermalm;Södermalm => Liljeholmen;MultiPoint(151672.785 6577396.05);MultiPoint(151674.988 6577394.19);;59.31173496740532;18.029370329373396
6663;C 0413 Magelungsvägen;Cykelbana längs Magelungsvägen Serienummer: Y2G14086168 Id: 100015304;Magelungsvägen;Mellanvägsbacken;Älvsjö;Mellanvägsbacken => Älvsjö;Älvsjö => Mellanvägsbacken;MultiPoint(152017.822 6571751.69, 152017.842 6571753.7);MultiPoint(152014.503 6571748.486, 152013.036 6571749.351);;59.26106600043585;18.035375793867125
6670;C 0112 Torsgatan Norra;Cykelbana längs Torsgatan Serienummer: Y2H15108619 Id: 100027670;Torsgatan;Torsgatan;Kammakargatan;Torsgatan => Kammakargatan;Kammakargatan => Torsgatan;MultiPoint(152863.745 6580089.744);MultiPoint(152862.486 6580086.769);;59.33590875268735;18.05031661376877
6672;C 0112 Sveavägen Västra;Cykelbana längs Sveavägen Serienummer: Y2H15108620 Id: 100027671;Sveavägen;Kammakargatan;Adolf Fredriks Kyrkogata;Kammakargatan => Adolf Fredriks Kyrkogata;Adolf Fredriks Kyrkogata => Kammakargatan;MultiPoint(153450.209 6580365.125);MultiPoint(153453.299 6580366.899);;59.338376339139984;18.06062530973045
6673;C 0112 Sveavägen Östra;Cykelbana längs Sveavägen Serienummer: Y2H15108618 Id: 100027669;Sveavägen;Adolf Fredriks Kyrkogata;Kammakargatan;Adolf Fredriks Kyrkogata => Kammakargatan;Kammakargatan => Adolf Fredriks Kyrkogata;MultiPoint(153470.333 6580374.078);MultiPoint(153468.13 6580372.819);;59.33845651460868;18.060979062119504
6679;C 0509 Liljeholmsbron Västra;Cykelbana längs Liljeholmsbron Västra Serienummer: U15G1071291 Id: 100001830;Liljeholmsbron Västra;Södermalm;Liljeholmen;Södermalm => Liljeholmen;Liljeholmen => Södermalm;MultiPoint(151651.294 6577425.141);MultiPoint(151649.577 6577427.087);;59.31199618172296;18.028993218232856
6680;C 0517 Västbergarondellen;Cykelbana längs Södertäljevägen Serienummer: Y2G13104550 Id: 100010670;Västbergarondellen;Västbergamotet;Midsommarkransen;Västbergamotet => Midsommarkransen;Midsommarkransen => Västbergamotet;MultiPoint(150275.116 6575805.073, 150276.031 6575804.157, 150274.189 6575805.658);MultiPoint(150268.364 6575811.024, 150267.563 6575811.939, 150269.345 6575810.081);;59.29745654977799;18.0048283922015
6689;C 0524 Slättgårdsvägen;Cykelbana längs Slättgårdsvägen Serienummer: Y2G13104551 Id: 100010671;Slättgårdsvägen;Bredängsvägen;Västertorpsvägen;Bredängsvägen => Västertorpsvägen;Västertorpsvägen => Bredängsvägen;MultiPoint(147016.869 6574930.859, 147018.414 6574931.087, 147019.97 6574931.428);MultiPoint(147023.849 6574935.665, 147022.19 6574935.265, 147019.398 6574934.632);;59.28959856040473;17.947656961207702
6641;C 0101 Karlberg;Cykelbana mellan Rörstandsgatan och Karlberg Serienummer: Y2G14035436 Id: 100010666;Karlberg;Karlberg;Rörstrandsgatan;Karlberg => Rörstrandsgatan;Rörstrandsgatan => Karlberg;MultiPoint(151574.593 6580650.845, 151573.781 6580649.647);MultiPoint(151573.563 6580657.024, 151573.552 6580655.369);;59.340952286513;18.02767003643863
6657;C 0526 Årstabergsvägen;Cykelbana längs Årstabergsvägen Serienummer: Y2I18034766 Id: 100044433;Årstabergsvägen;Sjöviksbacken;Årstabergs station;Sjöviksbacken => Årstabergs station;Årstabergs station => Sjöviksbacken;MultiPoint(151614.647 6576108.913, 151615.866 6576107.299);MultiPoint(151617.622 6576111.66, 151618.985 6576109.845);;59.30018101855237;18.02833994527885
6638;C 0619 Brommaplan Norra sidan;Cykelbana längs Drottningholmsvägen Serienummer: Y2G13104542 Id: 100010662;Drottningholmsvägen;Riksbyvägen;Brommaplan;Riksbyvägen => Brommaplan;Brommaplan => Riksbyvägen;MultiPoint(146651.001 6580499.783, 146652.586 6580499.115);MultiPoint(146650.085 6580497.036, 146651.671 6580496.654);;59.33958593978046;17.94115100901362
6639;C 0619 Brommaplan Syd;Cykelbana längs Drottningholmsvägen Serienummer: Y2G13104543 Id: 100010663;Drottningholmsvägen;Abrahamsbergsvägen;Brommaplan;Abrahamsbergsvägen => Brommaplan;Brommaplan => Abrahamsbergsvägen;MultiPoint(146681.671 6580461.102, 146683.187 6580460.331);MultiPoint(146680.756 6580457.783, 146682.157 6580457.241);;59.33923896793456;17.941690540428322
6644;C 0109 Västerbron Västra;Cykelbana längs Västerbron Serienummer: Y2412052261 Id: 100008350;Västerbron;Västerbroplan;Västerbron;Västerbroplan => Västerbron;Västerbron => Västerbroplan;MultiPoint(151351.662 6579105.892, 151350.914 6579107.125);MultiPoint(151352.806 6579110.012, 151353.431 6579109.071);;59.327084679682585;18.02374283389856
6649;C 0321 Danvikstullsbron;Cykelbana längs Värmdövägen Serienummer: Y2I18034767 Id: 100044434;Danviksbron;Tegelviksgatan;Kvarnholmsvägen;Tegelviksgatan => Kvarnholmsvägen;Kvarnholmsvägen => Tegelviksgatan;MultiPoint(156077.213 6577513.733);MultiPoint(156079.502 6577515.45);;59.31275096059246;18.10670535485326
6652;C 0319 Skansbron Västra;Cykelbana längs Skansbron Serienummer: U15G1071292 Id: 100001831;Skansbron;Hammarby Slussväg;Skansbron;Hammarby Slussväg => Skansbron;Skansbron => Hammarby Slussväg;MultiPoint(154525.28 6576522.217, 154524.901 6576523.359);MultiPoint(154528.027 6576523.018, 154527.79 6576524.074);;59.30386999227667;18.079435374263053
6659;C 0507 Hägerstensvägen Södra;Cykelbana längs Hägerstensvägen Serienummer: Y2G13114764 Id: 100011581;Hägerstensvägen;Typografvägen;Fågeltorget;Typografvägen => Fågeltorget;Fågeltorget => Typografvägen;MultiPoint(149421.158 6576636.829, 149420.929 6576638.317, 149420.672 6576639.716);MultiPoint(149419.899 6576643.581, 149419.67 6576645.184, 149420.309 6576642.285);;59.30492255848862;17.98983887308951
6661;C 0419 Huddingevägen Östra;Cykelbana längs Huddingevägen Serienummer: Y2G14086170 Id: 100015306;Huddingevägen;Sickmundsvägen;Rågsvedsvägen;Sickmundsvägen => Rågsvedsvägen;Rågsvedsvägen => Sickmundsvägen;MultiPoint(150761.604 6571035.519, 150762.177 6571036.892);MultiPoint(150760.803 6571037.922, 150761.833 6571039.867);;59.25464119318843;18.01334967857971
6666;C 0207 Hjorthagen;Cykelbana längs Södra Fiskartorpsvägen Serienummer: Y2H15108616  Id: 100027666;Fiskartorpsvägen;Södra Fiskartorpsvägen;Uggleängsvägen;Södra Fiskartorpsvägen => Uggleängsvägen;Uggleängsvägen => Södra Fiskartorpsvägen;MultiPoint(154786.491 6581892.071, 154786.949 6581893.559);MultiPoint(154783.859 6581892.643, 154784.088 6581894.131);;59.35207007045148;18.084139644233872
6686;C 0217 Strandvägen;Cykelbana längs Strandvägen Serienummer: Y2H15108623 Id: 100027674;Strandvägen;Nybroplan;Artillerigatan;Nybroplan => Artillerigatan;Artillerigatan => Nybroplan;MultiPoint(154438.82 6579679.871, 154436.755 6579680.878);MultiPoint(154441.566 6579685.135, 154439.502 6579686.371);;59.33221591323653;18.07798256392329
6665;C 0402 Enskedevägen Östra;Cykelbana längs Enskedevägen Serienummer: Y2G14086176 Id: 100015314;Enskedevägen;Enskedevägen;Sockenplan;Enskedevägen => Sockenplan;Sockenplan => Enskedevägen;MultiPoint(154175.377 6574300.06, 154174.118 6574300.861, 154176.569 6574299.088);MultiPoint(154181.786 6574296.513, 154180.641 6574296.856, 154179.487 6574297.371);;59.28392609548363;18.07325041336813
6682;C 0437 Sofielundsplan Västra;Cykelbana längs Nynäsvägen Serienummer: Y2G13104544 Id: 100010664;Sofielundsplan Västra;Fågelkärrsvägen;Sofielundsmotet;Fågelkärrsvägen => Sofielundsmotet;Sofielundsmotet => Fågelkärrsvägen;MultiPoint(155005.646 6574699.287, 155004.523 6574701.523);MultiPoint(155001.984 6574698.372, 155001.433 6574700.092);;59.287500745609535;18.087825386737045
6664;C 0402 Enskedevägen Västra;Cykelbana längs Enskedevägen Serienummer: Y2G14086177 Id: 100015315;Enskedevägen;Sockenplan;Björneborgsvägen;Sockenplan => Björneborgsvägen;Björneborgsvägen => Sockenplan;MultiPoint(154157.867 6574308.414, 154159.012 6574307.957, 154156.728 6574308.908);MultiPoint(154152.603 6574311.39, 154151.459 6574312.305, 154153.753 6574310.51);;59.28400122291384;18.07294338861549
6687;C 0428 Örbyleden - Grycksbovägen;Cykelbana längs Örbyleden Serienummer: Y2H15108612 Id: 100027658;Örbyleden;Skönviksvägen;Grycksbovägen;Skönviksvägen => Grycksbovägen;Grycksbovägen => Skönviksvägen;MultiPoint(153198.853 6572704.983, 153200.92 6572704.688);MultiPoint(153198.967 6572707.844, 153201.321 6572707.606);;59.26961610672444;18.05609529719595
6658;C 0507 Hägerstensvägen Norra;Cykelbana längs Hägerstensvägen Serienummer: Y2G13104549 Id: 100010669;Hägerstensvägen;Fågeltorget;Örnsbergsvägen;Fågeltorget => Örnsbergsvägen;Örnsbergsvägen => Fågeltorget;MultiPoint(149411.201 6576660.404, 149410.973 6576661.892, 149411.403 6576658.942);MultiPoint(149412.117 6576653.652, 149412.231 6576652.279, 149411.86 6576655.051);;59.3051342136446;17.989664021392393
6646;C 0306 Munkbroleden;Cykelbana längs Munkbroleden Serienummer: U15G1071294 Id: 100001833;Munkbroleden;Kåkbrinken;Munkbrogatan;Kåkbrinken => Munkbrogatan;Munkbrogatan => Kåkbrinken;MultiPoint(153799.137 6578761.995);MultiPoint(153795.475 6578761.08);;59.32398270915196;18.066728271517363
6640;C 0107 Tranebergsbron;Cykelbana längs Tranebergsbron Serienummer: U15G4055754 Id: 100000960;Tranebergsbron;Tranebergsslingan;Tranebergsbron;Tranebergsslingan => Tranebergsbron;Tranebergsbron => Tranebergsslingan;MultiPoint(149527.359 6579813.023, 149528.653 6579813.446);MultiPoint(149528.732 6579819.889, 149527.12 6579819.378);;59.33343419624253;17.991696200577305
